R Basics
…
You can also use group_by() to group by more than one variable. For instance, lets say I want to figure out the mean length for Blue Rockfish for each year of the dataset in each of the two study sites (marine protected area or outside of the protected area). I would write code like this:

blue_len_allyear_mpa <- raw_dat%>%
  filter(species_code == "BLU")%>%
  group_by(year, site)%>%
  summarize(meanlength = mean(length))

blue_len_allyear_mpa

## # A tibble: 22 x 3
## # Groups:   year [11]
##     year site  meanlength
##    <dbl> <chr>      <dbl>
##  1  2012 MPA         28.5
##  2  2012 REF         28.8
##  3  2013 MPA         27.8
##  4  2013 REF         27.3
##  5  2014 MPA         25.4
##  6  2014 REF         26.3
##  7  2015 MPA         25.7
##  8  2015 REF         26.3
##  9  2016 MPA         24.7
## 10  2016 REF         25.8
## # ... with 12 more rows
…
